{
    "banner_alert_variant": "banner-alert--emergency",
    "alert_headline": "This is the emergency alert style, used for time critical, safety-related information. (Do not use for academic deadlines, etc.)",
    "icon": "alert"
}